lab5/test_lab5/cfu_tb.vcd
$date
	Sun Dec  1 18:25:57 2024
$end
$version
	Icarus Verilog
$end
$timescale
	1ps
$end
$scope module cfu_tb $end
$var wire 1 ! rsp_valid $end
$var wire 32 " rsp_payload_outputs_0 [31:0] $end
$var wire 1 # cmd_ready $end
$var reg 1 $ clk $end
$var reg 10 % cmd_payload_function_id [9:0] $end
$var reg 32 & cmd_payload_inputs_0 [31:0] $end
$var reg 32 ' cmd_payload_inputs_1 [31:0] $end
$var reg 1 ( cmd_valid $end
$var reg 32 ) data_0 [31:0] $end
$var reg 32 * data_1 [31:0] $end
$var reg 32 + data_2 [31:0] $end
$var reg 32 , data_3 [31:0] $end
$var reg 1 - reset $end
$var reg 1 . rsp_ready $end
$var integer 32 / i [31:0] $end
$scope module cfu_inst $end
$var wire 32 0 A_data_in [31:0] $end
$var wire 1 1 A_wr_en $end
$var wire 32 2 B_data_in [31:0] $end
$var wire 1 3 B_wr_en $end
$var wire 1 $ clk $end
$var wire 10 4 cmd_payload_function_id [9:0] $end
$var wire 32 5 cmd_payload_inputs_0 [31:0] $end
$var wire 32 6 cmd_payload_inputs_1 [31:0] $end
$var wire 1 ( cmd_valid $end
$var wire 1 - reset $end
$var wire 1 . rsp_ready $end
$var wire 7 7 op [6:0] $end
$var wire 1 8 busy $end
$var wire 1 9 C_wr_en_mux $end
$var wire 1 : C_wr_en $end
$var wire 12 ; C_index_mux [11:0] $end
$var wire 12 < C_index [11:0] $end
$var wire 128 = C_data_out [127:0] $end
$var wire 128 > C_data_in_mux [127:0] $end
$var wire 128 ? C_data_in [127:0] $end
$var wire 1 @ B_wr_en_mux $end
$var wire 12 A B_index_mux [11:0] $end
$var wire 12 B B_index [11:0] $end
$var wire 32 C B_data_out [31:0] $end
$var wire 32 D B_data_in_mux [31:0] $end
$var wire 1 E A_wr_en_mux $end
$var wire 12 F A_index_mux [11:0] $end
$var wire 12 G A_index [11:0] $end
$var wire 32 H A_data_out [31:0] $end
$var wire 32 I A_data_in_mux [31:0] $end
$var parameter 32 J ADDR_BITS $end
$var parameter 32 K C_BITS $end
$var parameter 32 L DATA_BITS $end
$var parameter 4 M S0 $end
$var parameter 4 N S1 $end
$var parameter 4 O S10 $end
$var parameter 4 P S11 $end
$var parameter 4 Q S12 $end
$var parameter 4 R S2 $end
$var parameter 4 S S3 $end
$var parameter 4 T S4 $end
$var parameter 4 U S5 $end
$var parameter 4 V S6 $end
$var parameter 4 W S7 $end
$var parameter 4 X S8 $end
$var parameter 4 Y S9 $end
$var reg 32 Z A_data_in_init [31:0] $end
$var reg 12 [ A_index_init [11:0] $end
$var reg 1 \ A_wr_en_init $end
$var reg 32 ] B_data_in_init [31:0] $end
$var reg 12 ^ B_index_init [11:0] $end
$var reg 1 _ B_wr_en_init $end
$var reg 128 ` C_data_in_init [127:0] $end
$var reg 12 a C_index_init [11:0] $end
$var reg 1 b C_wr_en_init $end
$var reg 8 c K [7:0] $end
$var reg 8 d M [7:0] $end
$var reg 8 e N [7:0] $end
$var reg 1 # cmd_ready $end
$var reg 4 f comp_cnt [3:0] $end
$var reg 1 g in_valid $end
$var reg 32 h rsp_payload_outputs_0 [31:0] $end
$var reg 1 ! rsp_valid $end
$var reg 1 i rst_n $end
$var reg 4 j state [3:0] $end
$var reg 1 k tpu_busy $end
$scope module gbuff_A $end
$var wire 1 $ clk $end
$var wire 32 l data_in [31:0] $end
$var wire 12 m index [11:0] $end
$var wire 1 n ram_en $end
$var wire 1 - rst_n $end
$var wire 1 E wr_en $end
$var parameter 32 o ADDR_BITS $end
$var parameter 32 p DATA_BITS $end
$var parameter 32 q DEPTH $end
$var reg 32 r data_out [31:0] $end
$upscope $end
$scope module gbuff_B $end
$var wire 1 $ clk $end
$var wire 32 s data_in [31:0] $end
$var wire 12 t index [11:0] $end
$var wire 1 u ram_en $end
$var wire 1 - rst_n $end
$var wire 1 @ wr_en $end
$var parameter 32 v ADDR_BITS $end
$var parameter 32 w DATA_BITS $end
$var parameter 32 x DEPTH $end
$var reg 32 y data_out [31:0] $end
$upscope $end
$scope module gbuff_C $end
$var wire 1 $ clk $end
$var wire 128 z data_in [127:0] $end
$var wire 12 { index [11:0] $end
$var wire 1 | ram_en $end
$var wire 1 - rst_n $end
$var wire 1 9 wr_en $end
$var parameter 32 } ADDR_BITS $end
$var parameter 32 ~ DATA_BITS $end
$var parameter 32 !" DEPTH $end
$var reg 128 "" data_out [127:0] $end
$upscope $end
$scope module tpu $end
$var wire 32 #" A_data_in [31:0] $end
$var wire 32 $" A_data_out [31:0] $end
$var wire 1 1 A_wr_en $end
$var wire 32 %" B_data_in [31:0] $end
$var wire 32 &" B_data_out [31:0] $end
$var wire 1 3 B_wr_en $end
$var wire 128 '" C_data_out [127:0] $end
$var wire 8 (" K [7:0] $end
$var wire 8 )" M [7:0] $end
$var wire 8 *" N [7:0] $end
$var wire 1 $ clk $end
$var wire 1 g in_valid $end
$var wire 1 i rst_n $end
$var wire 2 +" state [1:0] $end
$var wire 128 ," psum_4 [127:0] $end
$var wire 128 -" psum_3 [127:0] $end
$var wire 128 ." psum_2 [127:0] $end
$var wire 128 /" psum_1 [127:0] $end
$var wire 2 0" n_state [1:0] $end
$var wire 32 1" datain_v [31:0] $end
$var wire 32 2" datain_h [31:0] $end
$var wire 32 3" counter [31:0] $end
$var wire 1 : C_wr_en $end
$var wire 12 4" C_index [11:0] $end
$var wire 128 5" C_data_in [127:0] $end
$var wire 12 6" B_index [11:0] $end
$var wire 12 7" A_index [11:0] $end
$var parameter 32 8" ADDR_BITS $end
$var parameter 2 9" FINISH $end
$var parameter 2 :" IDLE $end
$var parameter 2 ;" READ $end
$var parameter 2 <" WRITE $end
$var reg 8 =" K_reg [7:0] $end
$var reg 8 >" M_reg [7:0] $end
$var reg 8 ?" N_reg [7:0] $end
$var reg 1 8 busy $end
$scope module A_loader $end
$var wire 8 @" K_reg [7:0] $end
$var wire 1 $ clk $end
$var wire 32 A" in_data [31:0] $end
$var wire 32 B" out_wire [31:0] $end
$var wire 1 i rst_n $end
$var wire 2 C" state [1:0] $end
$var wire 32 D" counter [31:0] $end
$var parameter 2 E" IDLE $end
$var parameter 2 F" READ $end
$var reg 32 G" out [31:0] $end
$var reg 8 H" temp_out1 [7:0] $end
$var reg 16 I" temp_out2 [15:0] $end
$var reg 24 J" temp_out3 [23:0] $end
$var reg 32 K" temp_out4 [31:0] $end
$upscope $end
$scope module B_loader $end
$var wire 8 L" K_reg [7:0] $end
$var wire 1 $ clk $end
$var wire 32 M" in_data [31:0] $end
$var wire 32 N" out_wire [31:0] $end
$var wire 1 i rst_n $end
$var wire 2 O" state [1:0] $end
$var wire 32 P" counter [31:0] $end
$var parameter 2 Q" IDLE $end
$var parameter 2 R" READ $end
$var reg 32 S" out [31:0] $end
$var reg 8 T" temp_out1 [7:0] $end
$var reg 16 U" temp_out2 [15:0] $end
$var reg 24 V" temp_out3 [23:0] $end
$var reg 32 W" temp_out4 [31:0] $end
$upscope $end
$scope module ctrl $end
$var wire 32 X" A_data_in [31:0] $end
$var wire 1 1 A_wr_en $end
$var wire 32 Y" B_data_in [31:0] $end
$var wire 1 3 B_wr_en $end
$var wire 8 Z" K_reg [7:0] $end
$var wire 8 [" M_reg [7:0] $end
$var wire 8 \" N_reg [7:0] $end
$var wire 1 8 busy $end
$var wire 1 $ clk $end
$var wire 32 ]" counter_wire [31:0] $end
$var wire 1 g in_valid $end
$var wire 2 ^" n_state_wire [1:0] $end
$var wire 1 i rst_n $end
$var wire 2 _" state_wire [1:0] $end
$var wire 128 `" psum_4 [127:0] $end
$var wire 128 a" psum_3 [127:0] $end
$var wire 128 b" psum_2 [127:0] $end
$var wire 128 c" psum_1 [127:0] $end
$var wire 1 : C_wr_en $end
$var wire 12 d" C_index [11:0] $end
$var wire 128 e" C_data_in [127:0] $end
$var wire 12 f" B_index [11:0] $end
$var wire 12 g" A_index [11:0] $end
$var parameter 32 h" ADDR_BITS $end
$var parameter 2 i" FINISH $end
$var parameter 2 j" IDLE $end
$var parameter 2 k" READ $end
$var parameter 2 l" WRITE $end
$var reg 8 m" a_offset [7:0] $end
$var reg 8 n" b_offset [7:0] $end
$var reg 32 o" counter [31:0] $end
$var reg 8 p" counter_a [7:0] $end
$var reg 8 q" counter_b [7:0] $end
$var reg 32 r" counter_out [31:0] $end
$var reg 16 s" idx_a [15:0] $end
$var reg 16 t" idx_b [15:0] $end
$var reg 16 u" idx_c [15:0] $end
$var reg 2 v" n_state [1:0] $end
$var reg 3 w" out_cycle [2:0] $end
$var reg 2 x" state [1:0] $end
$upscope $end
$scope module systolic $end
$var wire 1 $ clk $end
$var wire 32 y" datain_h [31:0] $end
$var wire 32 z" datain_v [31:0] $end
$var wire 1 i rst_n $end
$var wire 2 {" state [1:0] $end
$var wire 128 |" psum_4 [127:0] $end
$var wire 128 }" psum_3 [127:0] $end
$var wire 128 ~" psum_2 [127:0] $end
$var wire 128 !# psum_1 [127:0] $end
$var wire 96 "# dataout_v [95:0] $end
$var wire 96 ## dataout_h [95:0] $end
$scope module pe1 $end
$var wire 1 $ clk $end
$var wire 8 $# in_north [7:0] $end
$var wire 8 %# in_west [7:0] $end
$var wire 32 &# psum [31:0] $end
$var wire 1 i rst_n $end
$var wire 2 '# state [1:0] $end
$var wire 32 (# product [31:0] $end
$var parameter 2 )# IDLE $end
$var parameter 2 *# READ $end
$var reg 32 +# maccout [31:0] $end
$var reg 8 ,# out_east [7:0] $end
$var reg 8 -# out_south [7:0] $end
$upscope $end
$scope module pe10 $end
$var wire 1 $ clk $end
$var wire 8 .# in_north [7:0] $end
$var wire 8 /# in_west [7:0] $end
$var wire 32 0# psum [31:0] $end
$var wire 1 i rst_n $end
$var wire 2 1# state [1:0] $end
$var wire 32 2# product [31:0] $end
$var parameter 2 3# IDLE $end
$var parameter 2 4# READ $end
$var reg 32 5# maccout [31:0] $end
$var reg 8 6# out_east [7:0] $end
$var reg 8 7# out_south [7:0] $end
$upscope $end
$scope module pe11 $end
$var wire 1 $ clk $end
$var wire 8 8# in_north [7:0] $end
$var wire 8 9# in_west [7:0] $end
$var wire 32 :# psum [31:0] $end
$var wire 1 i rst_n $end
$var wire 2 ;# state [1:0] $end
$var wire 32 <# product [31:0] $end
$var parameter 2 =# IDLE $end
$var parameter 2 ># READ $end
$var reg 32 ?# maccout [31:0] $end
$var reg 8 @# out_east [7:0] $end
$var reg 8 A# out_south [7:0] $end
$upscope $end
$scope module pe12 $end
$var wire 1 $ clk $end
$var wire 8 B# in_north [7:0] $end
$var wire 8 C# in_west [7:0] $end
$var wire 32 D# psum [31:0] $end
$var wire 1 i rst_n $end
$var wire 2 E# state [1:0] $end
$var wire 32 F# product [31:0] $end
$var parameter 2 G# IDLE $end
$var parameter 2 H# READ $end
$var reg 32 I# maccout [31:0] $end
$var reg 8 J# out_east [7:0] $end
$var reg 8 K# out_south [7:0] $end
$upscope $end
$scope module pe13 $end
$var wire 1 $ clk $end
$var wire 8 L# in_north [7:0] $end
$var wire 8 M# in_west [7:0] $end
$var wire 32 N# psum [31:0] $end
$var wire 1 i rst_n $end
$var wire 2 O# state [1:0] $end
$var wire 32 P# product [31:0] $end
$var parameter 2 Q# IDLE $end
$var parameter 2 R# READ $end
$var reg 32 S# maccout [31:0] $end
$var reg 8 T# out_east [7:0] $end
$var reg 8 U# out_south [7:0] $end
$upscope $end
$scope module pe14 $end
$var wire 1 $ clk $end
$var wire 8 V# in_north [7:0] $end
$var wire 8 W# in_west [7:0] $end
$var wire 32 X# psum [31:0] $end
$var wire 1 i rst_n $end
$var wire 2 Y# state [1:0] $end
$var wire 32 Z# product [31:0] $end
$var parameter 2 [# IDLE $end
$var parameter 2 \# READ $end
$var reg 32 ]# maccout [31:0] $end
$var reg 8 ^# out_east [7:0] $end
$var reg 8 _# out_south [7:0] $end
$upscope $end
$scope module pe15 $end
$var wire 1 $ clk $end
$var wire 8 `# in_north [7:0] $end
$var wire 8 a# in_west [7:0] $end
$var wire 32 b# psum [31:0] $end
$var wire 1 i rst_n $end
$var wire 2 c# state [1:0] $end
$var wire 32 d# product [31:0] $end
$var parameter 2 e# IDLE $end
$var parameter 2 f# READ $end
$var reg 32 g# maccout [31:0] $end
$var reg 8 h# out_east [7:0] $end
$var reg 8 i# out_south [7:0] $end
$upscope $end
$scope module pe16 $end
$var wire 1 $ clk $end
$var wire 8 j# in_north [7:0] $end
$var wire 8 k# in_west [7:0] $end
$var wire 32 l# psum [31:0] $end
$var wire 1 i rst_n $end
$var wire 2 m# state [1:0] $end
$var wire 32 n# product [31:0] $end
$var parameter 2 o# IDLE $end
$var parameter 2 p# READ $end
$var reg 32 q# maccout [31:0] $end
$var reg 8 r# out_east [7:0] $end
$var reg 8 s# out_south [7:0] $end
$upscope $end
$scope module pe2 $end
$var wire 1 $ clk $end
$var wire 8 t# in_north [7:0] $end
$var wire 8 u# in_west [7:0] $end
$var wire 32 v# psum [31:0] $end
$var wire 1 i rst_n $end
$var wire 2 w# state [1:0] $end
$var wire 32 x# product [31:0] $end
$var parameter 2 y# IDLE $end
$var parameter 2 z# READ $end
$var reg 32 {# maccout [31:0] $end
$var reg 8 |# out_east [7:0] $end
$var reg 8 }# out_south [7:0] $end
$upscope $end
$scope module pe3 $end
$var wire 1 $ clk $end
$var wire 8 ~# in_north [7:0] $end
$var wire 8 !$ in_west [7:0] $end
$var wire 32 "$ psum [31:0] $end
$var wire 1 i rst_n $end
$var wire 2 #$ state [1:0] $end
$var wire 32 $$ product [31:0] $end
$var parameter 2 %$ IDLE $end
$var parameter 2 &$ READ $end
$var reg 32 '$ maccout [31:0] $end
$var reg 8 ($ out_east [7:0] $end
$var reg 8 )$ out_south [7:0] $end
$upscope $end
$scope module pe4 $end
$var wire 1 $ clk $end
$var wire 8 *$ in_north [7:0] $end
$var wire 8 +$ in_west [7:0] $end
$var wire 32 ,$ psum [31:0] $end
$var wire 1 i rst_n $end
$var wire 2 -$ state [1:0] $end
$var wire 32 .$ product [31:0] $end
$var parameter 2 /$ IDLE $end
$var parameter 2 0$ READ $end
$var reg 32 1$ maccout [31:0] $end
$var reg 8 2$ out_east [7:0] $end
$var reg 8 3$ out_south [7:0] $end
$upscope $end
$scope module pe5 $end
$var wire 1 $ clk $end
$var wire 8 4$ in_north [7:0] $end
$var wire 8 5$ in_west [7:0] $end
$var wire 32 6$ psum [31:0] $end
$var wire 1 i rst_n $end
$var wire 2 7$ state [1:0] $end
$var wire 32 8$ product [31:0] $end
$var parameter 2 9$ IDLE $end
$var parameter 2 :$ READ $end
$var reg 32 ;$ maccout [31:0] $end
$var reg 8 <$ out_east [7:0] $end
$var reg 8 =$ out_south [7:0] $end
$upscope $end
$scope module pe6 $end
$var wire 1 $ clk $end
$var wire 8 >$ in_north [7:0] $end
$var wire 8 ?$ in_west [7:0] $end
$var wire 32 @$ psum [31:0] $end
$var wire 1 i rst_n $end
$var wire 2 A$ state [1:0] $end
$var wire 32 B$ product [31:0] $end
$var parameter 2 C$ IDLE $end
$var parameter 2 D$ READ $end
$var reg 32 E$ maccout [31:0] $end
$var reg 8 F$ out_east [7:0] $end
$var reg 8 G$ out_south [7:0] $end
$upscope $end
$scope module pe7 $end
$var wire 1 $ clk $end
$var wire 8 H$ in_north [7:0] $end
$var wire 8 I$ in_west [7:0] $end
$var wire 32 J$ psum [31:0] $end
$var wire 1 i rst_n $end
$var wire 2 K$ state [1:0] $end
$var wire 32 L$ product [31:0] $end
$var parameter 2 M$ IDLE $end
$var parameter 2 N$ READ $end
$var reg 32 O$ maccout [31:0] $end
$var reg 8 P$ out_east [7:0] $end
$var reg 8 Q$ out_south [7:0] $end
$upscope $end
$scope module pe8 $end
$var wire 1 $ clk $end
$var wire 8 R$ in_north [7:0] $end
$var wire 8 S$ in_west [7:0] $end
$var wire 32 T$ psum [31:0] $end
$var wire 1 i rst_n $end
$var wire 2 U$ state [1:0] $end
$var wire 32 V$ product [31:0] $end
$var parameter 2 W$ IDLE $end
$var parameter 2 X$ READ $end
$var reg 32 Y$ maccout [31:0] $end
$var reg 8 Z$ out_east [7:0] $end
$var reg 8 [$ out_south [7:0] $end
$upscope $end
$scope module pe9 $end
$var wire 1 $ clk $end
$var wire 8 \$ in_north [7:0] $end
$var wire 8 ]$ in_west [7:0] $end
$var wire 32 ^$ psum [31:0] $end
$var wire 1 i rst_n $end
$var wire 2 _$ state [1:0] $end
$var wire 32 `$ product [31:0] $end
$var parameter 2 a$ IDLE $end
$var parameter 2 b$ READ $end
$var reg 32 c$ maccout [31:0] $end
$var reg 8 d$ out_east [7:0] $end
$var reg 8 e$ out_south [7:0] $end
$upscope $end
$upscope $end
$upscope $end
$upscope $end
$scope task send_command $end
$var reg 10 f$ function_id [9:0] $end
$var reg 32 g$ input_0 [31:0] $end
$var reg 32 h$ input_1 [31:0] $end
$upscope $end
$scope task wait_for_response $end
$upscope $end
$upscope $end
$enddefinitions $end
$comment Show the parameter values. $end
$dumpall
b1 b$
b0 a$
b1 X$
b0 W$
b1 N$
b0 M$
b1 D$
b0 C$
b1 :$
b0 9$
b1 0$
b0 /$
b1 &$
b0 %$
b1 z#
b0 y#
b1 p#
b0 o#
b1 f#
b0 e#
b1 \#
b0 [#
b1 R#
b0 Q#
b1 H#
b0 G#
b1 >#
b0 =#
b1 4#
b0 3#
b1 *#
b0 )#
b10 l"
b1 k"
b0 j"
b11 i"
b1100 h"
b1 R"
b0 Q"
b1 F"
b0 E"
b10 <"
b1 ;"
b0 :"
b11 9"
b1100 8"
b1000000000000 !"
b10000000 ~
b1100 }
b1000000000000 x
b100000 w
b1100 v
b1000000000000 q
b100000 p
b1100 o
b1001 Y
b1000 X
b111 W
b110 V
b101 U
b100 T
b11 S
b10 R
b1100 Q
b1011 P
b1010 O
b1 N
b0 M
b100000 L
b10000000 K
b1100 J
$end
#0
$dumpvars
bx h$
bx g$
bx f$
bx e$
bx d$
bx c$
bx `$
bx _$
bx ^$
bx ]$
bx \$
bx [$
bx Z$
bx Y$
bx V$
bx U$
bx T$
bx S$
bx R$
bx Q$
bx P$
bx O$
bx L$
bx K$
bx J$
bx I$
bx H$
bx G$
bx F$
bx E$
bx B$
bx A$
bx @$
bx ?$
bx >$
bx =$
bx <$
bx ;$
bx 8$
bx 7$
bx 6$
bx 5$
bx 4$
bx 3$
bx 2$
bx 1$
bx .$
bx -$
bx ,$
bx +$
bx *$
bx )$
bx ($
bx '$
bx $$
bx #$
bx "$
bx !$
bx ~#
bx }#
bx |#
bx {#
bx x#
bx w#
bx v#
bx u#
bx t#
bx s#
bx r#
bx q#
bx n#
bx m#
bx l#
bx k#
bx j#
bx i#
bx h#
bx g#
bx d#
bx c#
bx b#
bx a#
bx `#
bx _#
bx ^#
bx ]#
bx Z#
bx Y#
bx X#
bx W#
bx V#
bx U#
bx T#
bx S#
bx P#
bx O#
bx N#
bx M#
bx L#
bx K#
bx J#
bx I#
bx F#
bx E#
bx D#
bx C#
bx B#
bx A#
bx @#
bx ?#
bx <#
bx ;#
bx :#
bx 9#
bx 8#
bx 7#
bx 6#
bx 5#
bx 2#
bx 1#
bx 0#
bx /#
bx .#
bx -#
bx ,#
bx +#
bx (#
bx '#
bx &#
bx %#
bx $#
bx ##
bx "#
bx !#
bx ~"
bx }"
bx |"
bx {"
bx z"
bx y"
bx x"
bx w"
bx v"
bx u"
bx t"
bx s"
bx r"
bx q"
bx p"
bx o"
bx n"
bx m"
bx g"
bx f"
bx e"
bx d"
bx c"
bx b"
bx a"
bx `"
bx _"
bx ^"
bx ]"
bx \"
bx ["
bx Z"
b0 Y"
b0 X"
bx W"
bx V"
bx U"
bx T"
bx S"
bx P"
bx O"
bx N"
bx M"
bx L"
bx K"
bx J"
bx I"
bx H"
bx G"
bx D"
bx C"
bx B"
bx A"
bx @"
bx ?"
bx >"
bx ="
bx 7"
bx 6"
bx 5"
bx 4"
bx 3"
bx 2"
bx 1"
bx 0"
bx /"
bx ."
bx -"
bx ,"
bx +"
bx *"
bx )"
bx ("
bx '"
bx &"
b0 %"
bx $"
b0 #"
bx ""
1|
bx {
bx z
bx y
1u
bx t
bx s
bx r
1n
bx m
bx l
xk
b0 j
xi
bx h
xg
b0 f
bx e
bx d
bx c
xb
bx a
bx `
x_
bx ^
bx ]
x\
bx [
bx Z
bx I
bx H
bx G
bx F
xE
bx D
bx C
bx B
bx A
x@
bx ?
bx >
bx =
bx <
bx ;
x:
x9
x8
bx 7
bx 6
bx 5
bx 4
03
b0 2
01
b0 0
bx /
0.
1-
bx ,
bx +
bx *
bx )
0(
bx '
bx &
bx %
0$
x#
bx "
x!
$end
#5000
0:
b0 0"
b0 ^"
b0 v"
0k
0g
1i
0!
0#
b0 3"
b0 D"
b0 P"
b0 ]"
b0 o"
b0 r"
1$
#10000
0$
#15000
b0x 0"
b0x ^"
b0x v"
b0 +"
b0 C"
b0 O"
b0 _"
b0 {"
b0 '#
b0 1#
b0 ;#
b0 E#
b0 O#
b0 Y#
b0 c#
b0 m#
b0 w#
b0 #$
b0 -$
b0 7$
b0 A$
b0 K$
b0 U$
b0 _$
b0 x"
1$
#20000
0$
b0 h$
b0 g$
b1000 f$
0-
#25000
b0 ?
b0 5"
b0 e"
b0 (#
b0 %#
b0 5$
b0 ]$
b0 M#
b0 $#
b0 t#
b0 ~#
b0 *$
b0 0"
b0 ^"
b0 v"
xk
b0 2"
b0 B"
b0 G"
b0 y"
b0 K"
b0 J"
b0 I"
b0 H"
b0 1"
b0 N"
b0 S"
b0 z"
b0 W"
b0 V"
b0 U"
b0 T"
b0 &#
b0 +#
b0 v#
b0 {#
b0 "$
b0 '$
b0 /"
b0 c"
b0 !#
b0 ,$
b0 1$
b0 6$
b0 ;$
b0 @$
b0 E$
b0 J$
b0 O$
b0 ."
b0 b"
b0 ~"
b0 T$
b0 Y$
b0 ^$
b0 c$
b0 0#
b0 5#
b0 :#
b0 ?#
b0 -"
b0 a"
b0 }"
b0 D#
b0 I#
b0 N#
b0 S#
b0 X#
b0 ]#
b0 b#
b0 g#
b0 ,"
b0 `"
b0 |"
b0 l#
b0 q#
b0x +"
b0x C"
b0x O"
b0x _"
b0x {"
b0x '#
b0x 1#
b0x ;#
b0x E#
b0x O#
b0x Y#
b0x c#
b0x m#
b0x w#
b0x #$
b0x -$
b0x 7$
b0x A$
b0x K$
b0x U$
b0x _$
b0x x"
b1 7
b0 '
b0 6
b0 &
b0 5
b1000 %
b1000 4
1(
1$
#30000
b1 j
0$
#35000
b0 8$
b0 4$
b0 x#
b0 u#
b0 B$
b0 >$
b0 $$
b0 !$
b0 L$
b0 H$
b0 .$
b0 +$
b0 V$
b0 R$
b0 `$
b0 \$
b0 ?$
b0 2#
b0 .#
b0 I$
b0 <#
b0 8#
b0 S$
b0 F#
b0 B#
b0 P#
b0 L#
b0 /#
b0 Z#
b0 V#
b0 9#
b0 d#
b0 `#
b0 C#
b0 n#
b0 j#
b0 W#
b0 a#
b0 k#
b0 G
b0 7"
b0 g"
b0 B
b0 6"
b0 f"
b0 <
b0 4"
b0 d"
b0 -#
b0 ,#
b0 }#
b0 |#
b0 )$
b0 ($
b0 3$
b0 2$
b0 =$
b0 <$
b0 G$
b0 F$
b0 Q$
b0 P$
b0 [$
b0 Z$
b0 e$
b0 d$
b0 7#
b0 6#
b0 A#
b0 @#
b0 "#
b0 K#
b0 J#
b0 U#
b0 T#
b0 _#
b0 ^#
b0 i#
b0 ##
b0 h#
b0 s#
b0 r#
b0 w"
b0 p"
b0 q"
b0 s"
b0 t"
b0 u"
08
b0 0"
b0 ^"
b0 v"
0i
1#
b0 +"
b0 C"
b0 O"
b0 _"
b0 {"
b0 '#
b0 1#
b0 ;#
b0 E#
b0 O#
b0 Y#
b0 c#
b0 m#
b0 w#
b0 #$
b0 -$
b0 7$
b0 A$
b0 K$
b0 U$
b0 _$
b0 x"
1.
0(
1$
#40000
b11 j
0$
#45000
0k
1!
0#
1i
1$
#50000
b100 j
0$
#55000
0!
bx w"
b10000 g$
b10000 f$
0.
1$
#60000
b0 j
0$
#65000
b10 7
b10000 &
b10000 5
b10000 %
b10000 4
1(
1$
#70000
b1 j
0$
#75000
b10000 c
b10000 ("
1#
1.
0(
1$
#80000
b11 j
0$
#85000
b10000 ="
b10000 @"
b10000 L"
b10000 Z"
1!
0#
1$
#90000
b100 j
0$
#95000
0!
b100000 f$
0.
1$
#100000
b0 j
0$
#105000
b100 7
b100000 %
b100000 4
1(
1$
#110000
b1 j
0$
#115000
b10000 d
b10000 )"
1#
1.
0(
1$
#120000
b11 j
0$
#125000
b100 m"
b10000 >"
b10000 ["
1!
0#
1$
#130000
b100 j
0$
#135000
0!
b100 w"
b110000 f$
0.
1$
#140000
b0 j
0$
#145000
b110 7
b110000 %
b110000 4
1(
1$
#150000
b1 j
0$
#155000
b10000 e
b10000 *"
1#
1.
0(
1$
#160000
b11 j
0$
#165000
b100 n"
b10000 ?"
b10000 \"
1!
0#
1$
#170000
b100 j
0$
#175000
0!
b0 g$
b11000 f$
0.
1$
#180000
b0 j
0$
#185000
b11 7
b0 &
b0 5
b11000 %
b11000 4
1(
1$
#190000
b1 j
0$
#195000
b10000 "
b10000 h
1#
1.
0(
1$
#200000
b11 j
0$
#205000
1!
0#
1$
#210000
b100 j
0$
#215000
0!
b101000 f$
0.
1$
#220000
b0 j
0$
#225000
b101 7
b101000 %
b101000 4
1(
1$
#230000
b1 j
0$
#235000
1#
1.
0(
1$
#240000
b11 j
0$
#245000
1!
0#
1$
#250000
b100 j
0$
#255000
0!
b111000 f$
0.
1$
#260000
b0 j
0$
#265000
b111 7
b111000 %
b111000 4
1(
1$
#270000
b1 j
0$
#275000
1#
1.
0(
1$
#280000
b11 j
0$
#285000
1!
0#
1$
#290000
b100 j
0$
#295000
0!
b10000110100010011000101001000110 h$
b1000000 f$
b0 /
0.
1$
#300000
b0 j
0$
#305000
b1000 7
b10000110100010011000101001000110 '
b10000110100010011000101001000110 6
b1000000 %
b1000000 4
1(
1$
#310000
b1 j
0$
#315000
1E
b10000110100010011000101001000110 I
b10000110100010011000101001000110 l
b0 F
b0 m
1\
b10000110100010011000101001000110 Z
b0 [
1#
1.
0(
1$
#320000
b11 j
0$
#325000
1!
0#
1$
#330000
b100 j
0$
#335000
0!
b10101111110000000100000111111 h$
b1 g$
b1 /
0.
1$
#340000
b0 j
0$
#345000
b10101111110000000100000111111 '
b10101111110000000100000111111 6
b1 &
b1 5
1(
1$
#350000
b1 j
0$
#355000
b10101111110000000100000111111 I
b10101111110000000100000111111 l
b1 F
b1 m
b10101111110000000100000111111 Z
b1 [
1#
1.
0(
1$
#360000
b11 j
0$
#365000
1!
0#
1$
#370000
b100 j
0$
#375000
0!
b101000011000101001 h$
b10 g$
b10 /
0.
1$
#380000
b0 j
0$
#385000
b101000011000101001 '
b101000011000101001 6
b10 &
b10 5
1(
1$
#390000
b1 j
0$
#395000
b101000011000101001 I
b101000011000101001 l
b10 F
b10 m
b101000011000101001 Z
b10 [
1#
1.
0(
1$
#400000
b11 j
0$
#405000
1!
0#
1$
#410000
b100 j
0$
#415000
0!
b10010010000100010000011000010010 h$
b11 g$
b11 /
0.
1$
#420000
b0 j
0$
#425000
b10010010000100010000011000010010 '
b10010010000100010000011000010010 6
b11 &
b11 5
1(
1$
#430000
b1 j
0$
#435000
b10010010000100010000011000010010 I
b10010010000100010000011000010010 l
b11 F
b11 m
b10010010000100010000011000010010 Z
b11 [
1#
1.
0(
1$
#440000
b11 j
0$
#445000
1!
0#
1$
#450000
b100 j
0$
#455000
0!
b101100111111110111011110110011 h$
b100 g$
b100 /
0.
1$
#460000
b0 j
0$
#465000
b101100111111110111011110110011 '
b101100111111110111011110110011 6
b100 &
b100 5
1(
1$
#470000
b1 j
0$
#475000
b101100111111110111011110110011 I
b101100111111110111011110110011 l
b100 F
b100 m
b101100111111110111011110110011 Z
b100 [
1#
1.
0(
1$
#480000
b11 j
0$
#485000
1!
0#
1$
#490000
b100 j
0$
#495000
0!
b1111011001110011010001111000111 h$
b101 g$
b101 /
0.
1$
#500000
b0 j
0$
#505000
b1111011001110011010001111000111 '
b1111011001110011010001111000111 6
b101 &
b101 5
1(
1$
#510000
b1 j
0$
#515000
b1111011001110011010001111000111 I
b1111011001110011010001111000111 l
b101 F
b101 m
b1111011001110011010001111000111 Z
b101 [
1#
1.
0(
1$
#520000
b11 j
0$
#525000
1!
0#
1$
#530000
b100 j
0$
#535000
0!
b10100010100010010001000010001010 h$
b110 g$
b110 /
0.
1$
#540000
b0 j
0$
#545000
b10100010100010010001000010001010 '
b10100010100010010001000010001010 6
b110 &
b110 5
1(
1$
#550000
b1 j
0$
#555000
b10100010100010010001000010001010 I
b10100010100010010001000010001010 l
b110 F
b110 m
b10100010100010010001000010001010 Z
b110 [
1#
1.
0(
1$
#560000
b11 j
0$
#565000
1!
0#
1$
#570000
b100 j
0$
#575000
0!
b1011000000011110110000001011100 h$
b111 g$
b111 /
0.
1$
#580000
b0 j
0$
#585000
b1011000000011110110000001011100 '
b1011000000011110110000001011100 6
b111 &
b111 5
1(
1$
#590000
b1 j
0$
#595000
b1011000000011110110000001011100 I
b1011000000011110110000001011100 l
b111 F
b111 m
b1011000000011110110000001011100 Z
b111 [
1#
1.
0(
1$
#600000
b11 j
0$
#605000
1!
0#
1$
#610000
b100 j
0$
#615000
0!
b1111011110110011100111110011110 h$
b1000 g$
b1000 /
0.
1$
#620000
b0 j
0$
#625000
b1111011110110011100111110011110 '
b1111011110110011100111110011110 6
b1000 &
b1000 5
1(
1$
#630000
b1 j
0$
