lab5/test_lab5/waveform.vcd
$date
	Sat Nov 30 12:47:27 2024
$end
$version
	Icarus Verilog
$end
$timescale
	1ps
$end
$scope module cfu_tb $end
$var wire 1 ! rsp_valid $end
$var wire 32 " rsp_payload_outputs_0 [31:0] $end
$var wire 1 # cmd_ready $end
$var reg 1 $ clk $end
$var reg 10 % cmd_payload_function_id [9:0] $end
$var reg 32 & cmd_payload_inputs_0 [31:0] $end
$var reg 32 ' cmd_payload_inputs_1 [31:0] $end
$var reg 1 ( cmd_valid $end
$var reg 1 ) reset $end
$var reg 1 * rsp_ready $end
$var integer 32 + i [31:0] $end
$scope module cfu_inst $end
$var wire 32 , A_data_in [31:0] $end
$var wire 1 - A_wr_en $end
$var wire 32 . B_data_in [31:0] $end
$var wire 1 / B_wr_en $end
$var wire 1 $ clk $end
$var wire 10 0 cmd_payload_function_id [9:0] $end
$var wire 32 1 cmd_payload_inputs_0 [31:0] $end
$var wire 32 2 cmd_payload_inputs_1 [31:0] $end
$var wire 1 ( cmd_valid $end
$var wire 1 ) reset $end
$var wire 1 * rsp_ready $end
$var wire 7 3 op [6:0] $end
$var wire 1 4 busy $end
$var wire 1 5 C_wr_en_mux $end
$var wire 1 6 C_wr_en $end
$var wire 16 7 C_index_mux [15:0] $end
$var wire 16 8 C_index [15:0] $end
$var wire 128 9 C_data_out [127:0] $end
$var wire 128 : C_data_in_mux [127:0] $end
$var wire 128 ; C_data_in [127:0] $end
$var wire 1 < B_wr_en_mux $end
$var wire 16 = B_index_mux [15:0] $end
$var wire 16 > B_index [15:0] $end
$var wire 32 ? B_data_out [31:0] $end
$var wire 32 @ B_data_in_mux [31:0] $end
$var wire 1 A A_wr_en_mux $end
$var wire 16 B A_index_mux [15:0] $end
$var wire 16 C A_index [15:0] $end
$var wire 32 D A_data_out [31:0] $end
$var wire 32 E A_data_in_mux [31:0] $end
$var parameter 32 F ADDR_BITS $end
$var parameter 32 G C_BITS $end
$var parameter 32 H DATA_BITS $end
$var parameter 4 I S0 $end
$var parameter 4 J S1 $end
$var parameter 4 K S10 $end
$var parameter 4 L S2 $end
$var parameter 4 M S3 $end
$var parameter 4 N S4 $end
$var parameter 4 O S5 $end
$var parameter 4 P S6 $end
$var parameter 4 Q S7 $end
$var parameter 4 R S8 $end
$var parameter 4 S S9 $end
$var reg 32 T A_data_in_init [31:0] $end
$var reg 16 U A_index_init [15:0] $end
$var reg 1 V A_wr_en_init $end
$var reg 32 W B_data_in_init [31:0] $end
$var reg 16 X B_index_init [15:0] $end
$var reg 1 Y B_wr_en_init $end
$var reg 128 Z C_data_in_init [127:0] $end
$var reg 16 [ C_index_init [15:0] $end
$var reg 1 \ C_wr_en_init $end
$var reg 8 ] K [7:0] $end
$var reg 8 ^ M [7:0] $end
$var reg 8 _ N [7:0] $end
$var reg 1 # cmd_ready $end
$var reg 4 ` comp_cnt [3:0] $end
$var reg 1 a in_valid $end
$var reg 32 b rsp_payload_outputs_0 [31:0] $end
$var reg 1 ! rsp_valid $end
$var reg 1 c rst_n $end
$var reg 4 d state [3:0] $end
$scope module gbuff_A $end
$var wire 1 $ clk $end
$var wire 32 e data_in [31:0] $end
$var wire 16 f index [15:0] $end
$var wire 1 g ram_en $end
$var wire 1 ) rst_n $end
$var wire 1 A wr_en $end
$var parameter 32 h ADDR_BITS $end
$var parameter 32 i DATA_BITS $end
$var parameter 32 j DEPTH $end
$var reg 32 k data_out [31:0] $end
$upscope $end
$scope module gbuff_B $end
$var wire 1 $ clk $end
$var wire 32 l data_in [31:0] $end
$var wire 16 m index [15:0] $end
$var wire 1 n ram_en $end
$var wire 1 ) rst_n $end
$var wire 1 < wr_en $end
$var parameter 32 o ADDR_BITS $end
$var parameter 32 p DATA_BITS $end
$var parameter 32 q DEPTH $end
$var reg 32 r data_out [31:0] $end
$upscope $end
$scope module gbuff_C $end
$var wire 1 $ clk $end
$var wire 128 s data_in [127:0] $end
$var wire 16 t index [15:0] $end
$var wire 1 u ram_en $end
$var wire 1 ) rst_n $end
$var wire 1 5 wr_en $end
$var parameter 32 v ADDR_BITS $end
$var parameter 32 w DATA_BITS $end
$var parameter 32 x DEPTH $end
$var reg 128 y data_out [127:0] $end
$upscope $end
$scope module tpu $end
$var wire 32 z A_data_in [31:0] $end
$var wire 32 { A_data_out [31:0] $end
$var wire 1 - A_wr_en $end
$var wire 32 | B_data_in [31:0] $end
$var wire 32 } B_data_out [31:0] $end
$var wire 1 / B_wr_en $end
$var wire 128 ~ C_data_out [127:0] $end
$var wire 8 !" K [7:0] $end
$var wire 8 "" M [7:0] $end
$var wire 8 #" N [7:0] $end
$var wire 1 $ clk $end
$var wire 1 a in_valid $end
$var wire 1 c rst_n $end
$var wire 2 $" state [1:0] $end
$var wire 128 %" psum_4 [127:0] $end
$var wire 128 &" psum_3 [127:0] $end
$var wire 128 '" psum_2 [127:0] $end
$var wire 128 (" psum_1 [127:0] $end
$var wire 2 )" n_state [1:0] $end
$var wire 32 *" datain_v [31:0] $end
$var wire 32 +" datain_h [31:0] $end
$var wire 32 ," counter [31:0] $end
$var wire 1 6 C_wr_en $end
$var wire 16 -" C_index [15:0] $end
$var wire 128 ." C_data_in [127:0] $end
$var wire 16 /" B_index [15:0] $end
$var wire 16 0" A_index [15:0] $end
$var parameter 2 1" FINISH $end
$var parameter 2 2" IDLE $end
$var parameter 2 3" READ $end
$var parameter 2 4" WRITE $end
$var reg 8 5" K_reg [7:0] $end
$var reg 8 6" M_reg [7:0] $end
$var reg 8 7" N_reg [7:0] $end
$var reg 1 4 busy $end
$scope module A_loader $end
$var wire 8 8" K_reg [7:0] $end
$var wire 1 $ clk $end
$var wire 32 9" in_data [31:0] $end
$var wire 32 :" out_wire [31:0] $end
$var wire 1 c rst_n $end
$var wire 2 ;" state [1:0] $end
$var wire 32 <" counter [31:0] $end
$var parameter 2 =" IDLE $end
$var parameter 2 >" READ $end
$var reg 32 ?" out [31:0] $end
$var reg 8 @" temp_out1 [7:0] $end
$var reg 16 A" temp_out2 [15:0] $end
$var reg 24 B" temp_out3 [23:0] $end
$var reg 32 C" temp_out4 [31:0] $end
$upscope $end
$scope module B_loader $end
$var wire 8 D" K_reg [7:0] $end
$var wire 1 $ clk $end
$var wire 32 E" in_data [31:0] $end
$var wire 32 F" out_wire [31:0] $end
$var wire 1 c rst_n $end
$var wire 2 G" state [1:0] $end
$var wire 32 H" counter [31:0] $end
$var parameter 2 I" IDLE $end
$var parameter 2 J" READ $end
$var reg 32 K" out [31:0] $end
$var reg 8 L" temp_out1 [7:0] $end
$var reg 16 M" temp_out2 [15:0] $end
$var reg 24 N" temp_out3 [23:0] $end
$var reg 32 O" temp_out4 [31:0] $end
$upscope $end
$scope module ctrl $end
$var wire 32 P" A_data_in [31:0] $end
$var wire 1 - A_wr_en $end
$var wire 32 Q" B_data_in [31:0] $end
$var wire 1 / B_wr_en $end
$var wire 8 R" K_reg [7:0] $end
$var wire 8 S" M_reg [7:0] $end
$var wire 8 T" N_reg [7:0] $end
$var wire 1 4 busy $end
$var wire 1 $ clk $end
$var wire 32 U" counter_wire [31:0] $end
$var wire 1 a in_valid $end
$var wire 2 V" n_state_wire [1:0] $end
$var wire 1 c rst_n $end
$var wire 2 W" state_wire [1:0] $end
$var wire 128 X" psum_4 [127:0] $end
$var wire 128 Y" psum_3 [127:0] $end
$var wire 128 Z" psum_2 [127:0] $end
$var wire 128 [" psum_1 [127:0] $end
$var wire 1 6 C_wr_en $end
$var wire 16 \" C_index [15:0] $end
$var wire 128 ]" C_data_in [127:0] $end
$var wire 16 ^" B_index [15:0] $end
$var wire 16 _" A_index [15:0] $end
$var parameter 2 `" FINISH $end
$var parameter 2 a" IDLE $end
$var parameter 2 b" READ $end
$var parameter 2 c" WRITE $end
$var reg 8 d" a_offset [7:0] $end
$var reg 8 e" b_offset [7:0] $end
$var reg 32 f" counter [31:0] $end
$var reg 8 g" counter_a [7:0] $end
$var reg 8 h" counter_b [7:0] $end
$var reg 32 i" counter_out [31:0] $end
$var reg 16 j" idx_a [15:0] $end
$var reg 16 k" idx_b [15:0] $end
$var reg 16 l" idx_c [15:0] $end
$var reg 2 m" n_state [1:0] $end
$var reg 3 n" out_cycle [2:0] $end
$var reg 2 o" state [1:0] $end
$upscope $end
$scope module systolic $end
$var wire 1 $ clk $end
$var wire 32 p" datain_h [31:0] $end
$var wire 32 q" datain_v [31:0] $end
$var wire 1 c rst_n $end
$var wire 2 r" state [1:0] $end
$var wire 128 s" psum_4 [127:0] $end
$var wire 128 t" psum_3 [127:0] $end
$var wire 128 u" psum_2 [127:0] $end
$var wire 128 v" psum_1 [127:0] $end
$var wire 96 w" dataout_v [95:0] $end
$var wire 96 x" dataout_h [95:0] $end
$scope module pe1 $end
$var wire 1 $ clk $end
$var wire 8 y" in_north [7:0] $end
$var wire 8 z" in_west [7:0] $end
$var wire 32 {" psum [31:0] $end
$var wire 1 c rst_n $end
$var wire 2 |" state [1:0] $end
$var wire 32 }" product [31:0] $end
$var parameter 2 ~" IDLE $end
$var parameter 2 !# READ $end
$var reg 32 "# maccout [31:0] $end
$var reg 8 ## out_east [7:0] $end
$var reg 8 $# out_south [7:0] $end
$upscope $end
$scope module pe10 $end
$var wire 1 $ clk $end
$var wire 8 %# in_north [7:0] $end
$var wire 8 &# in_west [7:0] $end
$var wire 32 '# psum [31:0] $end
$var wire 1 c rst_n $end
$var wire 2 (# state [1:0] $end
$var wire 32 )# product [31:0] $end
$var parameter 2 *# IDLE $end
$var parameter 2 +# READ $end
$var reg 32 ,# maccout [31:0] $end
$var reg 8 -# out_east [7:0] $end
$var reg 8 .# out_south [7:0] $end
$upscope $end
$scope module pe11 $end
$var wire 1 $ clk $end
$var wire 8 /# in_north [7:0] $end
$var wire 8 0# in_west [7:0] $end
$var wire 32 1# psum [31:0] $end
$var wire 1 c rst_n $end
$var wire 2 2# state [1:0] $end
$var wire 32 3# product [31:0] $end
$var parameter 2 4# IDLE $end
$var parameter 2 5# READ $end
$var reg 32 6# maccout [31:0] $end
$var reg 8 7# out_east [7:0] $end
$var reg 8 8# out_south [7:0] $end
$upscope $end
$scope module pe12 $end
$var wire 1 $ clk $end
$var wire 8 9# in_north [7:0] $end
$var wire 8 :# in_west [7:0] $end
$var wire 32 ;# psum [31:0] $end
$var wire 1 c rst_n $end
$var wire 2 <# state [1:0] $end
$var wire 32 =# product [31:0] $end
$var parameter 2 ># IDLE $end
$var parameter 2 ?# READ $end
$var reg 32 @# maccout [31:0] $end
$var reg 8 A# out_east [7:0] $end
$var reg 8 B# out_south [7:0] $end
$upscope $end
$scope module pe13 $end
$var wire 1 $ clk $end
$var wire 8 C# in_north [7:0] $end
$var wire 8 D# in_west [7:0] $end
$var wire 32 E# psum [31:0] $end
$var wire 1 c rst_n $end
$var wire 2 F# state [1:0] $end
$var wire 32 G# product [31:0] $end
$var parameter 2 H# IDLE $end
$var parameter 2 I# READ $end
$var reg 32 J# maccout [31:0] $end
$var reg 8 K# out_east [7:0] $end
$var reg 8 L# out_south [7:0] $end
$upscope $end
$scope module pe14 $end
$var wire 1 $ clk $end
$var wire 8 M# in_north [7:0] $end
$var wire 8 N# in_west [7:0] $end
$var wire 32 O# psum [31:0] $end
$var wire 1 c rst_n $end
$var wire 2 P# state [1:0] $end
$var wire 32 Q# product [31:0] $end
$var parameter 2 R# IDLE $end
$var parameter 2 S# READ $end
$var reg 32 T# maccout [31:0] $end
$var reg 8 U# out_east [7:0] $end
$var reg 8 V# out_south [7:0] $end
$upscope $end
$scope module pe15 $end
$var wire 1 $ clk $end
$var wire 8 W# in_north [7:0] $end
$var wire 8 X# in_west [7:0] $end
$var wire 32 Y# psum [31:0] $end
$var wire 1 c rst_n $end
$var wire 2 Z# state [1:0] $end
$var wire 32 [# product [31:0] $end
$var parameter 2 \# IDLE $end
$var parameter 2 ]# READ $end
$var reg 32 ^# maccout [31:0] $end
$var reg 8 _# out_east [7:0] $end
$var reg 8 `# out_south [7:0] $end
$upscope $end
$scope module pe16 $end
$var wire 1 $ clk $end
$var wire 8 a# in_north [7:0] $end
$var wire 8 b# in_west [7:0] $end
$var wire 32 c# psum [31:0] $end
$var wire 1 c rst_n $end
$var wire 2 d# state [1:0] $end
$var wire 32 e# product [31:0] $end
$var parameter 2 f# IDLE $end
$var parameter 2 g# READ $end
$var reg 32 h# maccout [31:0] $end
$var reg 8 i# out_east [7:0] $end
$var reg 8 j# out_south [7:0] $end
$upscope $end
$scope module pe2 $end
$var wire 1 $ clk $end
$var wire 8 k# in_north [7:0] $end
$var wire 8 l# in_west [7:0] $end
$var wire 32 m# psum [31:0] $end
$var wire 1 c rst_n $end
$var wire 2 n# state [1:0] $end
$var wire 32 o# product [31:0] $end
$var parameter 2 p# IDLE $end
$var parameter 2 q# READ $end
$var reg 32 r# maccout [31:0] $end
$var reg 8 s# out_east [7:0] $end
$var reg 8 t# out_south [7:0] $end
$upscope $end
$scope module pe3 $end
$var wire 1 $ clk $end
$var wire 8 u# in_north [7:0] $end
$var wire 8 v# in_west [7:0] $end
$var wire 32 w# psum [31:0] $end
$var wire 1 c rst_n $end
$var wire 2 x# state [1:0] $end
$var wire 32 y# product [31:0] $end
$var parameter 2 z# IDLE $end
$var parameter 2 {# READ $end
$var reg 32 |# maccout [31:0] $end
$var reg 8 }# out_east [7:0] $end
$var reg 8 ~# out_south [7:0] $end
$upscope $end
$scope module pe4 $end
$var wire 1 $ clk $end
$var wire 8 !$ in_north [7:0] $end
$var wire 8 "$ in_west [7:0] $end
$var wire 32 #$ psum [31:0] $end
$var wire 1 c rst_n $end
$var wire 2 $$ state [1:0] $end
$var wire 32 %$ product [31:0] $end
$var parameter 2 &$ IDLE $end
$var parameter 2 '$ READ $end
$var reg 32 ($ maccout [31:0] $end
$var reg 8 )$ out_east [7:0] $end
$var reg 8 *$ out_south [7:0] $end
$upscope $end
$scope module pe5 $end
$var wire 1 $ clk $end
$var wire 8 +$ in_north [7:0] $end
$var wire 8 ,$ in_west [7:0] $end
$var wire 32 -$ psum [31:0] $end
$var wire 1 c rst_n $end
$var wire 2 .$ state [1:0] $end
$var wire 32 /$ product [31:0] $end
$var parameter 2 0$ IDLE $end
$var parameter 2 1$ READ $end
$var reg 32 2$ maccout [31:0] $end
$var reg 8 3$ out_east [7:0] $end
$var reg 8 4$ out_south [7:0] $end
$upscope $end
$scope module pe6 $end
$var wire 1 $ clk $end
$var wire 8 5$ in_north [7:0] $end
$var wire 8 6$ in_west [7:0] $end
$var wire 32 7$ psum [31:0] $end
$var wire 1 c rst_n $end
$var wire 2 8$ state [1:0] $end
$var wire 32 9$ product [31:0] $end
$var parameter 2 :$ IDLE $end
$var parameter 2 ;$ READ $end
$var reg 32 <$ maccout [31:0] $end
$var reg 8 =$ out_east [7:0] $end
$var reg 8 >$ out_south [7:0] $end
$upscope $end
$scope module pe7 $end
$var wire 1 $ clk $end
$var wire 8 ?$ in_north [7:0] $end
$var wire 8 @$ in_west [7:0] $end
$var wire 32 A$ psum [31:0] $end
$var wire 1 c rst_n $end
$var wire 2 B$ state [1:0] $end
$var wire 32 C$ product [31:0] $end
$var parameter 2 D$ IDLE $end
$var parameter 2 E$ READ $end
$var reg 32 F$ maccout [31:0] $end
$var reg 8 G$ out_east [7:0] $end
$var reg 8 H$ out_south [7:0] $end
$upscope $end
$scope module pe8 $end
$var wire 1 $ clk $end
$var wire 8 I$ in_north [7:0] $end
$var wire 8 J$ in_west [7:0] $end
$var wire 32 K$ psum [31:0] $end
$var wire 1 c rst_n $end
$var wire 2 L$ state [1:0] $end
$var wire 32 M$ product [31:0] $end
$var parameter 2 N$ IDLE $end
$var parameter 2 O$ READ $end
$var reg 32 P$ maccout [31:0] $end
$var reg 8 Q$ out_east [7:0] $end
$var reg 8 R$ out_south [7:0] $end
$upscope $end
$scope module pe9 $end
$var wire 1 $ clk $end
$var wire 8 S$ in_north [7:0] $end
$var wire 8 T$ in_west [7:0] $end
$var wire 32 U$ psum [31:0] $end
$var wire 1 c rst_n $end
$var wire 2 V$ state [1:0] $end
$var wire 32 W$ product [31:0] $end
$var parameter 2 X$ IDLE $end
$var parameter 2 Y$ READ $end
$var reg 32 Z$ maccout [31:0] $end
$var reg 8 [$ out_east [7:0] $end
$var reg 8 \$ out_south [7:0] $end
$upscope $end
$upscope $end
$upscope $end
$upscope $end
$scope task send_command $end
$var reg 10 ]$ function_id [9:0] $end
$var reg 32 ^$ input_0 [31:0] $end
$var reg 32 _$ input_1 [31:0] $end
$upscope $end
$scope task wait_for_response $end
$upscope $end
$upscope $end
$enddefinitions $end
$comment Show the parameter values. $end
$dumpall
b1 Y$
b0 X$
b1 O$
b0 N$
b1 E$
b0 D$
b1 ;$
b0 :$
b1 1$
b0 0$
b1 '$
b0 &$
b1 {#
b0 z#
b1 q#
b0 p#
b1 g#
b0 f#
b1 ]#
b0 \#
b1 S#
b0 R#
b1 I#
b0 H#
b1 ?#
b0 >#
b1 5#
b0 4#
b1 +#
b0 *#
b1 !#
b0 ~"
b10 c"
b1 b"
b0 a"
b11 `"
b1 J"
b0 I"
b1 >"
b0 ="
b10 4"
b1 3"
b0 2"
b11 1"
b10000000000000000 x
b10000000 w
b10000 v
b10000000000000000 q
b100000 p
b10000 o
b10000000000000000 j
b100000 i
b10000 h
b1001 S
b1000 R
b111 Q
b110 P
b101 O
b100 N
b11 M
b10 L
b1010 K
b1 J
b0 I
b100000 H
b10000000 G
b10000 F
$end
#0
$dumpvars
bx _$
bx ^$
bx ]$
bx \$
bx [$
bx Z$
bx W$
bx V$
bx U$
bx T$
bx S$
bx R$
bx Q$
bx P$
bx M$
bx L$
bx K$
bx J$
bx I$
bx H$
bx G$
bx F$
bx C$
bx B$
bx A$
bx @$
bx ?$
bx >$
bx =$
bx <$
bx 9$
bx 8$
bx 7$
bx 6$
bx 5$
bx 4$
bx 3$
bx 2$
bx /$
bx .$
bx -$
bx ,$
bx +$
bx *$
bx )$
bx ($
bx %$
bx $$
bx #$
bx "$
bx !$
bx ~#
bx }#
bx |#
bx y#
bx x#
bx w#
bx v#
bx u#
bx t#
bx s#
bx r#
bx o#
bx n#
bx m#
bx l#
bx k#
bx j#
bx i#
bx h#
bx e#
bx d#
bx c#
bx b#
bx a#
bx `#
bx _#
bx ^#
bx [#
bx Z#
bx Y#
bx X#
bx W#
bx V#
bx U#
bx T#
bx Q#
bx P#
bx O#
bx N#
bx M#
bx L#
bx K#
bx J#
bx G#
bx F#
bx E#
bx D#
bx C#
bx B#
bx A#
bx @#
bx =#
bx <#
bx ;#
bx :#
bx 9#
bx 8#
bx 7#
bx 6#
bx 3#
bx 2#
bx 1#
bx 0#
bx /#
bx .#
bx -#
bx ,#
bx )#
bx (#
bx '#
bx &#
bx %#
bx $#
bx ##
bx "#
bx }"
bx |"
bx {"
bx z"
bx y"
bx x"
bx w"
bx v"
bx u"
bx t"
bx s"
bx r"
bx q"
bx p"
bx o"
bx n"
bx m"
bx l"
bx k"
bx j"
bx i"
bx h"
bx g"
bx f"
bx e"
bx d"
bx _"
bx ^"
bx ]"
bx \"
bx ["
bx Z"
bx Y"
bx X"
bx W"
bx V"
bx U"
bx T"
bx S"
bx R"
b0 Q"
b0 P"
bx O"
bx N"
bx M"
bx L"
bx K"
bx H"
bx G"
bx F"
bx E"
bx D"
bx C"
bx B"
bx A"
bx @"
bx ?"
bx <"
bx ;"
bx :"
bx 9"
bx 8"
bx 7"
bx 6"
bx 5"
bx 0"
bx /"
bx ."
bx -"
bx ,"
bx +"
bx *"
bx )"
bx ("
bx '"
bx &"
bx %"
bx $"
bx #"
bx ""
bx !"
bx ~
bx }
b0 |
bx {
b0 z
bx y
1u
bx t
bx s
bx r
1n
bx m
bx l
bx k
1g
bx f
bx e
b0 d
xc
bx b
xa
b0 `
bx _
bx ^
bx ]
x\
bx [
bx Z
xY
bx X
bx W
xV
bx U
bx T
bx E
bx D
bx C
bx B
xA
bx @
bx ?
bx >
bx =
x<
bx ;
bx :
bx 9
bx 8
bx 7
x6
x5
x4
bx 3
bx 2
bx 1
bx 0
0/
b0 .
0-
b0 ,
b1000000 +
0*
1)
0(
bx '
bx &
bx %
0$
x#
bx "
x!
$end
#5000
06
b0 )"
b0 V"
b0 m"
0a
1c
0!
0#
b0 ,"
b0 <"
b0 H"
b0 U"
b0 f"
b0 i"
1$
#10000
0$
#15000
b0x )"
b0x V"
b0x m"
b0 $"
b0 ;"
b0 G"
b0 W"
b0 r"
b0 |"
b0 (#
b0 2#
b0 <#
b0 F#
b0 P#
b0 Z#
b0 d#
b0 n#
b0 x#
b0 $$
b0 .$
b0 8$
b0 B$
b0 L$
b0 V$
b0 o"
1$
#20000
0$
b0 _$
b0 ^$
b1 ]$
0)
#25000
b0 ;
b0 ."
b0 ]"
b0 }"
b0 z"
b0 ,$
b0 T$
b0 D#
b0 y"
b0 k#
b0 u#
b0 !$
b0 )"
b0 V"
b0 m"
b0 +"
b0 :"
b0 ?"
b0 p"
b0 C"
b0 B"
b0 A"
b0 @"
b0 *"
b0 F"
b0 K"
b0 q"
b0 O"
b0 N"
b0 M"
b0 L"
b0 {"
b0 "#
b0 m#
b0 r#
b0 w#
b0 |#
b0 ("
b0 ["
b0 v"
b0 #$
b0 ($
b0 -$
b0 2$
b0 7$
b0 <$
b0 A$
b0 F$
b0 '"
b0 Z"
b0 u"
b0 K$
b0 P$
b0 U$
b0 Z$
b0 '#
b0 ,#
b0 1#
b0 6#
b0 &"
b0 Y"
b0 t"
b0 ;#
b0 @#
b0 E#
b0 J#
b0 O#
b0 T#
b0 Y#
b0 ^#
b0 %"
b0 X"
b0 s"
b0 c#
b0 h#
b0x $"
b0x ;"
b0x G"
b0x W"
b0x r"
b0x |"
b0x (#
b0x 2#
b0x <#
b0x F#
b0x P#
b0x Z#
b0x d#
b0x n#
b0x x#
b0x $$
b0x .$
b0x 8$
b0x B$
b0x L$
b0x V$
b0x o"
b0 3
b0 '
b0 2
b0 &
b0 1
b1 %
b1 0
1(
1$
#30000
b1 d
0$
#35000
b0x )"
b0x V"
b0x m"
1#
b0 $"
b0 ;"
b0 G"
b0 W"
b0 r"
b0 |"
b0 (#
b0 2#
b0 <#
b0 F#
b0 P#
b0 Z#
b0 d#
b0 n#
b0 x#
b0 $$
b0 .$
b0 8$
b0 B$
b0 L$
b0 V$
b0 o"
1*
0(
1$
#40000
b11 d
0$
#45000
b0 )"
b0 V"
b0 m"
1!
0#
b0x $"
b0x ;"
b0x G"
b0x W"
b0x r"
b0x |"
b0x (#
b0x 2#
b0x <#
b0x F#
b0x P#
b0x Z#
b0x d#
b0x n#
b0x x#
b0x $$
b0x .$
b0x 8$
b0x B$
b0x L$
b0x V$
b0x o"
1$
#50000
b100 d
0$
#55000
b0x )"
b0x V"
b0x m"
0!
b0 $"
b0 ;"
b0 G"
b0 W"
b0 r"
b0 |"
b0 (#
b0 2#
b0 <#
b0 F#
b0 P#
b0 Z#
b0 d#
b0 n#
b0 x#
b0 $$
b0 .$
b0 8$
b0 B$
b0 L$
b0 V$
b0 o"
b10000 ^$
b10 ]$
0*
1$
#60000
b0 d
0$
#65000
b0 )"
b0 V"
b0 m"
b0x $"
b0x ;"
b0x G"
b0x W"
b0x r"
b0x |"
b0x (#
b0x 2#
b0x <#
b0x F#
b0x P#
b0x Z#
b0x d#
b0x n#
b0x x#
b0x $$
b0x .$
b0x 8$
b0x B$
b0x L$
b0x V$
b0x o"
b10000 &
b10000 1
b10 %
b10 0
1(
1$
#70000
b1 d
0$
#75000
b0x )"
b0x V"
b0x m"
1#
b0 $"
b0 ;"
b0 G"
b0 W"
b0 r"
b0 |"
b0 (#
b0 2#
b0 <#
b0 F#
b0 P#
b0 Z#
b0 d#
b0 n#
b0 x#
b0 $$
b0 .$
b0 8$
b0 B$
b0 L$
b0 V$
b0 o"
1*
0(
1$
#80000
b11 d
0$
#85000
b0 )"
b0 V"
b0 m"
1!
0#
b0x $"
b0x ;"
b0x G"
b0x W"
b0x r"
b0x |"
b0x (#
b0x 2#
b0x <#
b0x F#
b0x P#
b0x Z#
b0x d#
b0x n#
b0x x#
b0x $$
b0x .$
b0x 8$
b0x B$
b0x L$
b0x V$
b0x o"
1$
#90000
b100 d
0$
#95000
b0x )"
b0x V"
b0x m"
0!
b0 $"
b0 ;"
b0 G"
b0 W"
b0 r"
b0 |"
b0 (#
b0 2#
b0 <#
b0 F#
b0 P#
b0 Z#
b0 d#
b0 n#
b0 x#
b0 $$
b0 .$
b0 8$
b0 B$
b0 L$
b0 V$
b0 o"
b100 ]$
0*
1$
#100000
b0 d
0$
#105000
b0 )"
b0 V"
b0 m"
b0x $"
b0x ;"
b0x G"
b0x W"
b0x r"
b0x |"
b0x (#
b0x 2#
b0x <#
b0x F#
b0x P#
b0x Z#
b0x d#
b0x n#
b0x x#
b0x $$
b0x .$
b0x 8$
b0x B$
b0x L$
b0x V$
b0x o"
b100 %
b100 0
1(
1$
#110000
b1 d
0$
#115000
b0x )"
b0x V"
b0x m"
1#
b0 $"
b0 ;"
b0 G"
b0 W"
b0 r"
b0 |"
b0 (#
b0 2#
b0 <#
b0 F#
b0 P#
b0 Z#
b0 d#
b0 n#
b0 x#
b0 $$
b0 .$
b0 8$
b0 B$
b0 L$
b0 V$
b0 o"
1*
0(
1$
#120000
b11 d
0$
#125000
b0 )"
b0 V"
b0 m"
1!
0#
b0x $"
b0x ;"
b0x G"
b0x W"
b0x r"
b0x |"
b0x (#
b0x 2#
b0x <#
b0x F#
b0x P#
b0x Z#
b0x d#
b0x n#
b0x x#
b0x $$
b0x .$
b0x 8$
b0x B$
b0x L$
b0x V$
b0x o"
1$
#130000
b100 d
0$
#135000
b0x )"
b0x V"
b0x m"
0!
b0 $"
b0 ;"
b0 G"
b0 W"
b0 r"
b0 |"
b0 (#
b0 2#
b0 <#
b0 F#
b0 P#
b0 Z#
b0 d#
b0 n#
b0 x#
b0 $$
b0 .$
b0 8$
b0 B$
b0 L$
b0 V$
b0 o"
b110 ]$
0*
1$
#140000
b0 d
0$
#145000
b0 )"
b0 V"
b0 m"
b0x $"
b0x ;"
b0x G"
b0x W"
b0x r"
b0x |"
b0x (#
b0x 2#
b0x <#
b0x F#
b0x P#
b0x Z#
b0x d#
b0x n#
b0x x#
b0x $$
b0x .$
b0x 8$
b0x B$
b0x L$
b0x V$
b0x o"
b110 %
b110 0
1(
1$
#150000
b1 d
0$
#155000
b0x )"
b0x V"
b0x m"
1#
b0 $"
b0 ;"
b0 G"
b0 W"
b0 r"
b0 |"
b0 (#
b0 2#
b0 <#
b0 F#
b0 P#
b0 Z#
b0 d#
b0 n#
b0 x#
b0 $$
b0 .$
b0 8$
b0 B$
b0 L$
b0 V$
b0 o"
1*
0(
1$
#160000
b11 d
0$
#165000
b0 )"
b0 V"
b0 m"
1!
0#
b0x $"
b0x ;"
b0x G"
b0x W"
b0x r"
b0x |"
b0x (#
b0x 2#
b0x <#
b0x F#
b0x P#
b0x Z#
b0x d#
b0x n#
b0x x#
b0x $$
b0x .$
b0x 8$
b0x B$
b0x L$
b0x V$
b0x o"
1$
#170000
b100 d
0$
#175000
b0x )"
b0x V"
b0x m"
0!
b0 $"
b0 ;"
b0 G"
b0 W"
b0 r"
b0 |"
b0 (#
b0 2#
b0 <#
b0 F#
b0 P#
b0 Z#
b0 d#
b0 n#
b0 x#
b0 $$
b0 .$
b0 8$
b0 B$
b0 L$
b0 V$
b0 o"
b10000110100010011000101001000110 _$
b0 ^$
b1000 ]$
b0 +
0*
1$
#180000
b0 d
0$
#185000
b0 )"
b0 V"
b0 m"
b0x $"
b0x ;"
b0x G"
b0x W"
b0x r"
b0x |"
b0x (#
b0x 2#
b0x <#
b0x F#
b0x P#
b0x Z#
b0x d#
b0x n#
b0x x#
b0x $$
b0x .$
b0x 8$
b0x B$
b0x L$
b0x V$
b0x o"
b1 3
b10000110100010011000101001000110 '
b10000110100010011000101001000110 2
b0 &
b0 1
b1000 %
b1000 0
1(
1$
#190000
b1 d
0$
#195000
b0 /$
b0 +$
b0 o#
b0 l#
b0 9$
b0 5$
b0 y#
b0 v#
b0 C$
b0 ?$
b0 %$
b0 "$
b0 M$
b0 I$
b0 W$
b0 S$
b0 6$
b0 )#
b0 %#
b0 @$
b0 3#
b0 /#
b0 J$
b0 =#
b0 9#
b0 G#
b0 C#
b0 &#
b0 Q#
b0 M#
b0 0#
b0 [#
b0 W#
b0 :#
b0 e#
b0 a#
b0 N#
b0 X#
b0 b#
b0 $#
b0 ##
b0 t#
b0 s#
b0 ~#
b0 }#
b0 *$
b0 )$
b0 4$
b0 3$
b0 >$
b0 =$
b0 H$
b0 G$
b0 R$
b0 Q$
b0 \$
b0 [$
b0 .#
b0 -#
b0 8#
b0 7#
b0 w"
b0 B#
b0 A#
b0 L#
b0 K#
b0 V#
b0 U#
b0 `#
b0 x"
b0 _#
b0 j#
b0 i#
b0 n"
b0 g"
b0 h"
b0 C
b0 0"
b0 _"
b0 j"
b0 >
b0 /"
b0 ^"
b0 k"
b0 8
b0 -"
b0 \"
b0 l"
04
b0 )"
b0 V"
b0 m"
0c
1#
b0 $"
b0 ;"
b0 G"
b0 W"
b0 r"
b0 |"
b0 (#
b0 2#
b0 <#
b0 F#
b0 P#
b0 Z#
b0 d#
b0 n#
b0 x#
b0 $$
b0 .$
b0 8$
b0 B$
b0 L$
b0 V$
b0 o"
1*
0(
1$
#200000
b11 d
0$
#205000
1!
0#
1c
1$
#210000
b100 d
0$
#215000
0!
bx n"
b10101111110000000100000111111 _$
b1 ^$
b1 +
0*
1$
#220000
b0 d
0$
#225000
b10101111110000000100000111111 '
b10101111110000000100000111111 2
b1 &
b1 1
1(
1$
#230000
b1 d
0$
